(kicad_sch
	(version 20231120)
	(generator "eeschema")
	(generator_version "8.0")
	(uuid "13e928f0-7c61-4551-94a0-7a09e2cb59a0")
	(paper "A5" portrait)
	(title_block
		(title "SBUB")
		(date "2024-07-02")
		(rev "0")
		(company "dosowisko.net")
		(comment 1 "GNU GPLv3+")
	)
	(lib_symbols
		(symbol "Connector:Conn_01x03_Pin"
			(pin_names
				(offset 1.016) hide)
			(exclude_from_sim no)
			(in_bom yes)
			(on_board yes)
			(property "Reference" "J"
				(at 0 5.08 0)
				(effects
					(font
						(size 1.27 1.27)
					)
				)
			)
			(property "Value" "Conn_01x03_Pin"
				(at 0 -5.08 0)
				(effects
					(font
						(size 1.27 1.27)
					)
				)
			)
			(property "Footprint" ""
				(at 0 0 0)
				(effects
					(font
						(size 1.27 1.27)
					)
					(hide yes)
				)
			)
			(property "Datasheet" "~"
				(at 0 0 0)
				(effects
					(font
						(size 1.27 1.27)
					)
					(hide yes)
				)
			)
			(property "Description" "Generic connector, single row, 01x03, script generated"
				(at 0 0 0)
				(effects
					(font
						(size 1.27 1.27)
					)
					(hide yes)
				)
			)
			(property "ki_locked" ""
				(at 0 0 0)
				(effects
					(font
						(size 1.27 1.27)
					)
				)
			)
			(property "ki_keywords" "connector"
				(at 0 0 0)
				(effects
					(font
						(size 1.27 1.27)
					)
					(hide yes)
				)
			)
			(property "ki_fp_filters" "Connector*:*_1x??_*"
				(at 0 0 0)
				(effects
					(font
						(size 1.27 1.27)
					)
					(hide yes)
				)
			)
			(symbol "Conn_01x03_Pin_1_1"
				(polyline
					(pts
						(xy 1.27 -2.54) (xy 0.8636 -2.54)
					)
					(stroke
						(width 0.1524)
						(type default)
					)
					(fill
						(type none)
					)
				)
				(polyline
					(pts
						(xy 1.27 0) (xy 0.8636 0)
					)
					(stroke
						(width 0.1524)
						(type default)
					)
					(fill
						(type none)
					)
				)
				(polyline
					(pts
						(xy 1.27 2.54) (xy 0.8636 2.54)
					)
					(stroke
						(width 0.1524)
						(type default)
					)
					(fill
						(type none)
					)
				)
				(rectangle
					(start 0.8636 -2.413)
					(end 0 -2.667)
					(stroke
						(width 0.1524)
						(type default)
					)
					(fill
						(type outline)
					)
				)
				(rectangle
					(start 0.8636 0.127)
					(end 0 -0.127)
					(stroke
						(width 0.1524)
						(type default)
					)
					(fill
						(type outline)
					)
				)
				(rectangle
					(start 0.8636 2.667)
					(end 0 2.413)
					(stroke
						(width 0.1524)
						(type default)
					)
					(fill
						(type outline)
					)
				)
				(pin passive line
					(at 5.08 2.54 180)
					(length 3.81)
					(name "Pin_1"
						(effects
							(font
								(size 1.27 1.27)
							)
						)
					)
					(number "1"
						(effects
							(font
								(size 1.27 1.27)
							)
						)
					)
				)
				(pin passive line
					(at 5.08 0 180)
					(length 3.81)
					(name "Pin_2"
						(effects
							(font
								(size 1.27 1.27)
							)
						)
					)
					(number "2"
						(effects
							(font
								(size 1.27 1.27)
							)
						)
					)
				)
				(pin passive line
					(at 5.08 -2.54 180)
					(length 3.81)
					(name "Pin_3"
						(effects
							(font
								(size 1.27 1.27)
							)
						)
					)
					(number "3"
						(effects
							(font
								(size 1.27 1.27)
							)
						)
					)
				)
			)
		)
		(symbol "Connector:USB_C_Plug"
			(pin_names
				(offset 1.016)
			)
			(exclude_from_sim no)
			(in_bom yes)
			(on_board yes)
			(property "Reference" "P1"
				(at 0 33.02 0)
				(effects
					(font
						(size 1.27 1.27)
					)
				)
			)
			(property "Value" "USB_C_Plug"
				(at 0 30.48 0)
				(effects
					(font
						(size 1.27 1.27)
					)
				)
			)
			(property "Footprint" "Connector_USB:USB_C_Plug_Molex_105444"
				(at 3.81 0 0)
				(effects
					(font
						(size 1.27 1.27)
					)
					(hide yes)
				)
			)
			(property "Datasheet" "https://www.usb.org/sites/default/files/documents/usb_type-c.zip"
				(at 3.81 0 0)
				(effects
					(font
						(size 1.27 1.27)
					)
					(hide yes)
				)
			)
			(property "Description" "USB Type-C Plug connector"
				(at 0 0 0)
				(effects
					(font
						(size 1.27 1.27)
					)
					(hide yes)
				)
			)
			(property "LCSC" "C134082"
				(at 0 0 0)
				(effects
					(font
						(size 1.27 1.27)
					)
					(hide yes)
				)
			)
			(property "ki_keywords" "usb universal serial bus"
				(at 0 0 0)
				(effects
					(font
						(size 1.27 1.27)
					)
					(hide yes)
				)
			)
			(property "ki_fp_filters" "USB*C*Plug*"
				(at 0 0 0)
				(effects
					(font
						(size 1.27 1.27)
					)
					(hide yes)
				)
			)
			(symbol "USB_C_Plug_0_0"
				(rectangle
					(start -0.254 -35.56)
					(end 0.254 -34.544)
					(stroke
						(width 0)
						(type default)
					)
					(fill
						(type none)
					)
				)
				(rectangle
					(start 9.0955 10.3909)
					(end 10.1115 9.8829)
					(stroke
						(width 0)
						(type default)
					)
					(fill
						(type none)
					)
				)
				(rectangle
					(start 9.1383 5.328)
					(end 10.1543 4.82)
					(stroke
						(width 0)
						(type default)
					)
					(fill
						(type none)
					)
				)
				(rectangle
					(start 9.144 12.954)
					(end 10.16 12.446)
					(stroke
						(width 0)
						(type default)
					)
					(fill
						(type none)
					)
				)
				(rectangle
					(start 10.16 -32.766)
					(end 9.144 -33.274)
					(stroke
						(width 0)
						(type default)
					)
					(fill
						(type none)
					)
				)
				(rectangle
					(start 10.16 -30.226)
					(end 9.144 -30.734)
					(stroke
						(width 0)
						(type default)
					)
					(fill
						(type none)
					)
				)
				(rectangle
					(start 10.16 -25.146)
					(end 9.144 -25.654)
					(stroke
						(width 0)
						(type default)
					)
					(fill
						(type none)
					)
				)
				(rectangle
					(start 10.16 -22.606)
					(end 9.144 -23.114)
					(stroke
						(width 0)
						(type default)
					)
					(fill
						(type none)
					)
				)
				(rectangle
					(start 10.16 -17.526)
					(end 9.144 -18.034)
					(stroke
						(width 0)
						(type default)
					)
					(fill
						(type none)
					)
				)
				(rectangle
					(start 10.16 -14.986)
					(end 9.144 -15.494)
					(stroke
						(width 0)
						(type default)
					)
					(fill
						(type none)
					)
				)
				(rectangle
					(start 10.16 -9.906)
					(end 9.144 -10.414)
					(stroke
						(width 0)
						(type default)
					)
					(fill
						(type none)
					)
				)
				(rectangle
					(start 10.16 -7.366)
					(end 9.144 -7.874)
					(stroke
						(width 0)
						(type default)
					)
					(fill
						(type none)
					)
				)
				(rectangle
					(start 10.16 -2.286)
					(end 9.144 -2.794)
					(stroke
						(width 0)
						(type default)
					)
					(fill
						(type none)
					)
				)
				(rectangle
					(start 10.16 0.254)
					(end 9.144 -0.254)
					(stroke
						(width 0)
						(type default)
					)
					(fill
						(type none)
					)
				)
				(rectangle
					(start 10.16 7.874)
					(end 9.144 7.366)
					(stroke
						(width 0)
						(type default)
					)
					(fill
						(type none)
					)
				)
				(rectangle
					(start 10.16 18.034)
					(end 9.144 17.526)
					(stroke
						(width 0)
						(type default)
					)
					(fill
						(type none)
					)
				)
				(rectangle
					(start 10.16 20.574)
					(end 9.144 20.066)
					(stroke
						(width 0)
						(type default)
					)
					(fill
						(type none)
					)
				)
				(rectangle
					(start 10.16 25.654)
					(end 9.144 25.146)
					(stroke
						(width 0)
						(type default)
					)
					(fill
						(type none)
					)
				)
			)
			(symbol "USB_C_Plug_0_1"
				(rectangle
					(start -10.16 27.94)
					(end 10.16 -35.56)
					(stroke
						(width 0.254)
						(type default)
					)
					(fill
						(type background)
					)
				)
				(arc
					(start -8.89 -3.81)
					(mid -6.985 -5.7067)
					(end -5.08 -3.81)
					(stroke
						(width 0.508)
						(type default)
					)
					(fill
						(type none)
					)
				)
				(arc
					(start -7.62 -3.81)
					(mid -6.985 -4.4423)
					(end -6.35 -3.81)
					(stroke
						(width 0.254)
						(type default)
					)
					(fill
						(type none)
					)
				)
				(arc
					(start -7.62 -3.81)
					(mid -6.985 -4.4423)
					(end -6.35 -3.81)
					(stroke
						(width 0.254)
						(type default)
					)
					(fill
						(type outline)
					)
				)
				(rectangle
					(start -7.62 -3.81)
					(end -6.35 3.81)
					(stroke
						(width 0.254)
						(type default)
					)
					(fill
						(type outline)
					)
				)
				(arc
					(start -6.35 3.81)
					(mid -6.985 4.4423)
					(end -7.62 3.81)
					(stroke
						(width 0.254)
						(type default)
					)
					(fill
						(type none)
					)
				)
				(arc
					(start -6.35 3.81)
					(mid -6.985 4.4423)
					(end -7.62 3.81)
					(stroke
						(width 0.254)
						(type default)
					)
					(fill
						(type outline)
					)
				)
				(arc
					(start -5.08 3.81)
					(mid -6.985 5.7067)
					(end -8.89 3.81)
					(stroke
						(width 0.508)
						(type default)
					)
					(fill
						(type none)
					)
				)
				(polyline
					(pts
						(xy -8.89 -3.81) (xy -8.89 3.81)
					)
					(stroke
						(width 0.508)
						(type default)
					)
					(fill
						(type none)
					)
				)
				(polyline
					(pts
						(xy -5.08 3.81) (xy -5.08 -3.81)
					)
					(stroke
						(width 0.508)
						(type default)
					)
					(fill
						(type none)
					)
				)
			)
			(symbol "USB_C_Plug_1_1"
				(circle
					(center -2.54 1.143)
					(radius 0.635)
					(stroke
						(width 0.254)
						(type default)
					)
					(fill
						(type outline)
					)
				)
				(circle
					(center 0 -5.842)
					(radius 1.27)
					(stroke
						(width 0)
						(type default)
					)
					(fill
						(type outline)
					)
				)
				(polyline
					(pts
						(xy 0 -5.842) (xy 0 4.318)
					)
					(stroke
						(width 0.508)
						(type default)
					)
					(fill
						(type none)
					)
				)
				(polyline
					(pts
						(xy 0 -3.302) (xy -2.54 -0.762) (xy -2.54 0.508)
					)
					(stroke
						(width 0.508)
						(type default)
					)
					(fill
						(type none)
					)
				)
				(polyline
					(pts
						(xy 0 -2.032) (xy 2.54 0.508) (xy 2.54 1.778)
					)
					(stroke
						(width 0.508)
						(type default)
					)
					(fill
						(type none)
					)
				)
				(polyline
					(pts
						(xy -1.27 4.318) (xy 0 6.858) (xy 1.27 4.318) (xy -1.27 4.318)
					)
					(stroke
						(width 0.254)
						(type default)
					)
					(fill
						(type outline)
					)
				)
				(rectangle
					(start 1.905 1.778)
					(end 3.175 3.048)
					(stroke
						(width 0.254)
						(type default)
					)
					(fill
						(type outline)
					)
				)
				(pin passive line
					(at 0 -40.64 90)
					(length 5.08)
					(name "GND"
						(effects
							(font
								(size 1.27 1.27)
							)
						)
					)
					(number "A1"
						(effects
							(font
								(size 1.27 1.27)
							)
						)
					)
				)
				(pin bidirectional line
					(at 15.24 -15.24 180)
					(length 5.08)
					(name "RX2-"
						(effects
							(font
								(size 1.27 1.27)
							)
						)
					)
					(number "A10"
						(effects
							(font
								(size 1.27 1.27)
							)
						)
					)
				)
				(pin bidirectional line
					(at 15.24 -17.78 180)
					(length 5.08)
					(name "RX2+"
						(effects
							(font
								(size 1.27 1.27)
							)
						)
					)
					(number "A11"
						(effects
							(font
								(size 1.27 1.27)
							)
						)
					)
				)
				(pin passive line
					(at 0 -40.64 90)
					(length 5.08) hide
					(name "GND"
						(effects
							(font
								(size 1.27 1.27)
							)
						)
					)
					(number "A12"
						(effects
							(font
								(size 1.27 1.27)
							)
						)
					)
				)
				(pin bidirectional line
					(at 15.24 -10.16 180)
					(length 5.08)
					(name "TX1+"
						(effects
							(font
								(size 1.27 1.27)
							)
						)
					)
					(number "A2"
						(effects
							(font
								(size 1.27 1.27)
							)
						)
					)
				)
				(pin bidirectional line
					(at 15.24 -7.62 180)
					(length 5.08)
					(name "TX1-"
						(effects
							(font
								(size 1.27 1.27)
							)
						)
					)
					(number "A3"
						(effects
							(font
								(size 1.27 1.27)
							)
						)
					)
				)
				(pin passive line
					(at 15.24 25.4 180)
					(length 5.08)
					(name "VBUS"
						(effects
							(font
								(size 1.27 1.27)
							)
						)
					)
					(number "A4"
						(effects
							(font
								(size 1.27 1.27)
							)
						)
					)
				)
				(pin bidirectional line
					(at 15.24 20.32 180)
					(length 5.08)
					(name "CC"
						(effects
							(font
								(size 1.27 1.27)
							)
						)
					)
					(number "A5"
						(effects
							(font
								(size 1.27 1.27)
							)
						)
					)
				)
				(pin bidirectional line
					(at 15.24 7.62 180)
					(length 5.08)
					(name "D+"
						(effects
							(font
								(size 1.27 1.27)
							)
						)
					)
					(number "A6"
						(effects
							(font
								(size 1.27 1.27)
							)
						)
					)
				)
				(pin bidirectional line
					(at 15.24 12.7 180)
					(length 5.08)
					(name "D-"
						(effects
							(font
								(size 1.27 1.27)
							)
						)
					)
					(number "A7"
						(effects
							(font
								(size 1.27 1.27)
							)
						)
					)
				)
				(pin bidirectional line
					(at 15.24 -30.48 180)
					(length 5.08)
					(name "SBU1"
						(effects
							(font
								(size 1.27 1.27)
							)
						)
					)
					(number "A8"
						(effects
							(font
								(size 1.27 1.27)
							)
						)
					)
				)
				(pin passive line
					(at 15.24 25.4 180)
					(length 5.08) hide
					(name "VBUS"
						(effects
							(font
								(size 1.27 1.27)
							)
						)
					)
					(number "A9"
						(effects
							(font
								(size 1.27 1.27)
							)
						)
					)
				)
				(pin passive line
					(at 0 -40.64 90)
					(length 5.08) hide
					(name "GND"
						(effects
							(font
								(size 1.27 1.27)
							)
						)
					)
					(number "B1"
						(effects
							(font
								(size 1.27 1.27)
							)
						)
					)
				)
				(pin bidirectional line
					(at 15.24 0 180)
					(length 5.08)
					(name "RX1-"
						(effects
							(font
								(size 1.27 1.27)
							)
						)
					)
					(number "B10"
						(effects
							(font
								(size 1.27 1.27)
							)
						)
					)
				)
				(pin bidirectional line
					(at 15.24 -2.54 180)
					(length 5.08)
					(name "RX1+"
						(effects
							(font
								(size 1.27 1.27)
							)
						)
					)
					(number "B11"
						(effects
							(font
								(size 1.27 1.27)
							)
						)
					)
				)
				(pin passive line
					(at 0 -40.64 90)
					(length 5.08) hide
					(name "GND"
						(effects
							(font
								(size 1.27 1.27)
							)
						)
					)
					(number "B12"
						(effects
							(font
								(size 1.27 1.27)
							)
						)
					)
				)
				(pin bidirectional line
					(at 15.24 -25.4 180)
					(length 5.08)
					(name "TX2+"
						(effects
							(font
								(size 1.27 1.27)
							)
						)
					)
					(number "B2"
						(effects
							(font
								(size 1.27 1.27)
							)
						)
					)
				)
				(pin bidirectional line
					(at 15.24 -22.86 180)
					(length 5.08)
					(name "TX2-"
						(effects
							(font
								(size 1.27 1.27)
							)
						)
					)
					(number "B3"
						(effects
							(font
								(size 1.27 1.27)
							)
						)
					)
				)
				(pin passive line
					(at 15.24 25.4 180)
					(length 5.08) hide
					(name "VBUS"
						(effects
							(font
								(size 1.27 1.27)
							)
						)
					)
					(number "B4"
						(effects
							(font
								(size 1.27 1.27)
							)
						)
					)
				)
				(pin bidirectional line
					(at 15.24 17.78 180)
					(length 5.08)
					(name "VCONN"
						(effects
							(font
								(size 1.27 1.27)
							)
						)
					)
					(number "B5"
						(effects
							(font
								(size 1.27 1.27)
							)
						)
					)
				)
				(pin bidirectional line
					(at 15.24 5.08 180)
					(length 5.08)
					(name "D+"
						(effects
							(font
								(size 1.27 1.27)
							)
						)
					)
					(number "B6"
						(effects
							(font
								(size 1.27 1.27)
							)
						)
					)
				)
				(pin bidirectional line
					(at 15.24 10.16 180)
					(length 5.08)
					(name "D-"
						(effects
							(font
								(size 1.27 1.27)
							)
						)
					)
					(number "B7"
						(effects
							(font
								(size 1.27 1.27)
							)
						)
					)
				)
				(pin bidirectional line
					(at 15.24 -33.02 180)
					(length 5.08)
					(name "SBU2"
						(effects
							(font
								(size 1.27 1.27)
							)
						)
					)
					(number "B8"
						(effects
							(font
								(size 1.27 1.27)
							)
						)
					)
				)
				(pin passive line
					(at 15.24 25.4 180)
					(length 5.08) hide
					(name "VBUS"
						(effects
							(font
								(size 1.27 1.27)
							)
						)
					)
					(number "B9"
						(effects
							(font
								(size 1.27 1.27)
							)
						)
					)
				)
				(pin passive line
					(at -7.62 -40.64 90)
					(length 5.08)
					(name "SHIELD"
						(effects
							(font
								(size 1.27 1.27)
							)
						)
					)
					(number "S1"
						(effects
							(font
								(size 1.27 1.27)
							)
						)
					)
				)
			)
		)
		(symbol "Connector:USB_C_Receptacle"
			(pin_names
				(offset 1.016)
			)
			(exclude_from_sim no)
			(in_bom yes)
			(on_board yes)
			(property "Reference" "J"
				(at -10.16 29.21 0)
				(effects
					(font
						(size 1.27 1.27)
					)
					(justify left)
				)
			)
			(property "Value" "USB_C_Receptacle"
				(at 10.16 29.21 0)
				(effects
					(font
						(size 1.27 1.27)
					)
					(justify right)
				)
			)
			(property "Footprint" ""
				(at 3.81 0 0)
				(effects
					(font
						(size 1.27 1.27)
					)
					(hide yes)
				)
			)
			(property "Datasheet" "https://www.usb.org/sites/default/files/documents/usb_type-c.zip"
				(at 3.81 0 0)
				(effects
					(font
						(size 1.27 1.27)
					)
					(hide yes)
				)
			)
			(property "Description" "USB Full-Featured Type-C Receptacle connector"
				(at 0 0 0)
				(effects
					(font
						(size 1.27 1.27)
					)
					(hide yes)
				)
			)
			(property "ki_keywords" "usb universal serial bus type-C full-featured"
				(at 0 0 0)
				(effects
					(font
						(size 1.27 1.27)
					)
					(hide yes)
				)
			)
			(property "ki_fp_filters" "USB*C*Receptacle*"
				(at 0 0 0)
				(effects
					(font
						(size 1.27 1.27)
					)
					(hide yes)
				)
			)
			(symbol "USB_C_Receptacle_0_0"
				(rectangle
					(start -0.254 -35.56)
					(end 0.254 -34.544)
					(stroke
						(width 0)
						(type default)
					)
					(fill
						(type none)
					)
				)
				(rectangle
					(start 10.16 -32.766)
					(end 9.144 -33.274)
					(stroke
						(width 0)
						(type default)
					)
					(fill
						(type none)
					)
				)
				(rectangle
					(start 10.16 -30.226)
					(end 9.144 -30.734)
					(stroke
						(width 0)
						(type default)
					)
					(fill
						(type none)
					)
				)
				(rectangle
					(start 10.16 -25.146)
					(end 9.144 -25.654)
					(stroke
						(width 0)
						(type default)
					)
					(fill
						(type none)
					)
				)
				(rectangle
					(start 10.16 -22.606)
					(end 9.144 -23.114)
					(stroke
						(width 0)
						(type default)
					)
					(fill
						(type none)
					)
				)
				(rectangle
					(start 10.16 -17.526)
					(end 9.144 -18.034)
					(stroke
						(width 0)
						(type default)
					)
					(fill
						(type none)
					)
				)
				(rectangle
					(start 10.16 -14.986)
					(end 9.144 -15.494)
					(stroke
						(width 0)
						(type default)
					)
					(fill
						(type none)
					)
				)
				(rectangle
					(start 10.16 -9.906)
					(end 9.144 -10.414)
					(stroke
						(width 0)
						(type default)
					)
					(fill
						(type none)
					)
				)
				(rectangle
					(start 10.16 -7.366)
					(end 9.144 -7.874)
					(stroke
						(width 0)
						(type default)
					)
					(fill
						(type none)
					)
				)
				(rectangle
					(start 10.16 -2.286)
					(end 9.144 -2.794)
					(stroke
						(width 0)
						(type default)
					)
					(fill
						(type none)
					)
				)
				(rectangle
					(start 10.16 0.254)
					(end 9.144 -0.254)
					(stroke
						(width 0)
						(type default)
					)
					(fill
						(type none)
					)
				)
				(rectangle
					(start 10.16 5.334)
					(end 9.144 4.826)
					(stroke
						(width 0)
						(type default)
					)
					(fill
						(type none)
					)
				)
				(rectangle
					(start 10.16 7.874)
					(end 9.144 7.366)
					(stroke
						(width 0)
						(type default)
					)
					(fill
						(type none)
					)
				)
				(rectangle
					(start 10.16 10.414)
					(end 9.144 9.906)
					(stroke
						(width 0)
						(type default)
					)
					(fill
						(type none)
					)
				)
				(rectangle
					(start 10.16 12.954)
					(end 9.144 12.446)
					(stroke
						(width 0)
						(type default)
					)
					(fill
						(type none)
					)
				)
				(rectangle
					(start 10.16 18.034)
					(end 9.144 17.526)
					(stroke
						(width 0)
						(type default)
					)
					(fill
						(type none)
					)
				)
				(rectangle
					(start 10.16 20.574)
					(end 9.144 20.066)
					(stroke
						(width 0)
						(type default)
					)
					(fill
						(type none)
					)
				)
				(rectangle
					(start 10.16 25.654)
					(end 9.144 25.146)
					(stroke
						(width 0)
						(type default)
					)
					(fill
						(type none)
					)
				)
			)
			(symbol "USB_C_Receptacle_0_1"
				(rectangle
					(start -10.16 27.94)
					(end 10.16 -35.56)
					(stroke
						(width 0.254)
						(type default)
					)
					(fill
						(type background)
					)
				)
				(arc
					(start -8.89 -3.81)
					(mid -6.985 -5.7067)
					(end -5.08 -3.81)
					(stroke
						(width 0.508)
						(type default)
					)
					(fill
						(type none)
					)
				)
				(arc
					(start -7.62 -3.81)
					(mid -6.985 -4.4423)
					(end -6.35 -3.81)
					(stroke
						(width 0.254)
						(type default)
					)
					(fill
						(type none)
					)
				)
				(arc
					(start -7.62 -3.81)
					(mid -6.985 -4.4423)
					(end -6.35 -3.81)
					(stroke
						(width 0.254)
						(type default)
					)
					(fill
						(type outline)
					)
				)
				(rectangle
					(start -7.62 -3.81)
					(end -6.35 3.81)
					(stroke
						(width 0.254)
						(type default)
					)
					(fill
						(type outline)
					)
				)
				(arc
					(start -6.35 3.81)
					(mid -6.985 4.4423)
					(end -7.62 3.81)
					(stroke
						(width 0.254)
						(type default)
					)
					(fill
						(type none)
					)
				)
				(arc
					(start -6.35 3.81)
					(mid -6.985 4.4423)
					(end -7.62 3.81)
					(stroke
						(width 0.254)
						(type default)
					)
					(fill
						(type outline)
					)
				)
				(arc
					(start -5.08 3.81)
					(mid -6.985 5.7067)
					(end -8.89 3.81)
					(stroke
						(width 0.508)
						(type default)
					)
					(fill
						(type none)
					)
				)
				(polyline
					(pts
						(xy -8.89 -3.81) (xy -8.89 3.81)
					)
					(stroke
						(width 0.508)
						(type default)
					)
					(fill
						(type none)
					)
				)
				(polyline
					(pts
						(xy -5.08 3.81) (xy -5.08 -3.81)
					)
					(stroke
						(width 0.508)
						(type default)
					)
					(fill
						(type none)
					)
				)
			)
			(symbol "USB_C_Receptacle_1_1"
				(circle
					(center -2.54 1.143)
					(radius 0.635)
					(stroke
						(width 0.254)
						(type default)
					)
					(fill
						(type outline)
					)
				)
				(circle
					(center 0 -5.842)
					(radius 1.27)
					(stroke
						(width 0)
						(type default)
					)
					(fill
						(type outline)
					)
				)
				(polyline
					(pts
						(xy 0 -5.842) (xy 0 4.318)
					)
					(stroke
						(width 0.508)
						(type default)
					)
					(fill
						(type none)
					)
				)
				(polyline
					(pts
						(xy 0 -3.302) (xy -2.54 -0.762) (xy -2.54 0.508)
					)
					(stroke
						(width 0.508)
						(type default)
					)
					(fill
						(type none)
					)
				)
				(polyline
					(pts
						(xy 0 -2.032) (xy 2.54 0.508) (xy 2.54 1.778)
					)
					(stroke
						(width 0.508)
						(type default)
					)
					(fill
						(type none)
					)
				)
				(polyline
					(pts
						(xy -1.27 4.318) (xy 0 6.858) (xy 1.27 4.318) (xy -1.27 4.318)
					)
					(stroke
						(width 0.254)
						(type default)
					)
					(fill
						(type outline)
					)
				)
				(rectangle
					(start 1.905 1.778)
					(end 3.175 3.048)
					(stroke
						(width 0.254)
						(type default)
					)
					(fill
						(type outline)
					)
				)
				(pin passive line
					(at 0 -40.64 90)
					(length 5.08)
					(name "GND"
						(effects
							(font
								(size 1.27 1.27)
							)
						)
					)
					(number "A1"
						(effects
							(font
								(size 1.27 1.27)
							)
						)
					)
				)
				(pin bidirectional line
					(at 15.24 -15.24 180)
					(length 5.08)
					(name "RX2-"
						(effects
							(font
								(size 1.27 1.27)
							)
						)
					)
					(number "A10"
						(effects
							(font
								(size 1.27 1.27)
							)
						)
					)
				)
				(pin bidirectional line
					(at 15.24 -17.78 180)
					(length 5.08)
					(name "RX2+"
						(effects
							(font
								(size 1.27 1.27)
							)
						)
					)
					(number "A11"
						(effects
							(font
								(size 1.27 1.27)
							)
						)
					)
				)
				(pin passive line
					(at 0 -40.64 90)
					(length 5.08) hide
					(name "GND"
						(effects
							(font
								(size 1.27 1.27)
							)
						)
					)
					(number "A12"
						(effects
							(font
								(size 1.27 1.27)
							)
						)
					)
				)
				(pin bidirectional line
					(at 15.24 -10.16 180)
					(length 5.08)
					(name "TX1+"
						(effects
							(font
								(size 1.27 1.27)
							)
						)
					)
					(number "A2"
						(effects
							(font
								(size 1.27 1.27)
							)
						)
					)
				)
				(pin bidirectional line
					(at 15.24 -7.62 180)
					(length 5.08)
					(name "TX1-"
						(effects
							(font
								(size 1.27 1.27)
							)
						)
					)
					(number "A3"
						(effects
							(font
								(size 1.27 1.27)
							)
						)
					)
				)
				(pin passive line
					(at 15.24 25.4 180)
					(length 5.08)
					(name "VBUS"
						(effects
							(font
								(size 1.27 1.27)
							)
						)
					)
					(number "A4"
						(effects
							(font
								(size 1.27 1.27)
							)
						)
					)
				)
				(pin bidirectional line
					(at 15.24 20.32 180)
					(length 5.08)
					(name "CC1"
						(effects
							(font
								(size 1.27 1.27)
							)
						)
					)
					(number "A5"
						(effects
							(font
								(size 1.27 1.27)
							)
						)
					)
				)
				(pin bidirectional line
					(at 15.24 7.62 180)
					(length 5.08)
					(name "D+"
						(effects
							(font
								(size 1.27 1.27)
							)
						)
					)
					(number "A6"
						(effects
							(font
								(size 1.27 1.27)
							)
						)
					)
				)
				(pin bidirectional line
					(at 15.24 12.7 180)
					(length 5.08)
					(name "D-"
						(effects
							(font
								(size 1.27 1.27)
							)
						)
					)
					(number "A7"
						(effects
							(font
								(size 1.27 1.27)
							)
						)
					)
				)
				(pin bidirectional line
					(at 15.24 -30.48 180)
					(length 5.08)
					(name "SBU1"
						(effects
							(font
								(size 1.27 1.27)
							)
						)
					)
					(number "A8"
						(effects
							(font
								(size 1.27 1.27)
							)
						)
					)
				)
				(pin passive line
					(at 15.24 25.4 180)
					(length 5.08) hide
					(name "VBUS"
						(effects
							(font
								(size 1.27 1.27)
							)
						)
					)
					(number "A9"
						(effects
							(font
								(size 1.27 1.27)
							)
						)
					)
				)
				(pin passive line
					(at 0 -40.64 90)
					(length 5.08) hide
					(name "GND"
						(effects
							(font
								(size 1.27 1.27)
							)
						)
					)
					(number "B1"
						(effects
							(font
								(size 1.27 1.27)
							)
						)
					)
				)
				(pin bidirectional line
					(at 15.24 0 180)
					(length 5.08)
					(name "RX1-"
						(effects
							(font
								(size 1.27 1.27)
							)
						)
					)
					(number "B10"
						(effects
							(font
								(size 1.27 1.27)
							)
						)
					)
				)
				(pin bidirectional line
					(at 15.24 -2.54 180)
					(length 5.08)
					(name "RX1+"
						(effects
							(font
								(size 1.27 1.27)
							)
						)
					)
					(number "B11"
						(effects
							(font
								(size 1.27 1.27)
							)
						)
					)
				)
				(pin passive line
					(at 0 -40.64 90)
					(length 5.08) hide
					(name "GND"
						(effects
							(font
								(size 1.27 1.27)
							)
						)
					)
					(number "B12"
						(effects
							(font
								(size 1.27 1.27)
							)
						)
					)
				)
				(pin bidirectional line
					(at 15.24 -25.4 180)
					(length 5.08)
					(name "TX2+"
						(effects
							(font
								(size 1.27 1.27)
							)
						)
					)
					(number "B2"
						(effects
							(font
								(size 1.27 1.27)
							)
						)
					)
				)
				(pin bidirectional line
					(at 15.24 -22.86 180)
					(length 5.08)
					(name "TX2-"
						(effects
							(font
								(size 1.27 1.27)
							)
						)
					)
					(number "B3"
						(effects
							(font
								(size 1.27 1.27)
							)
						)
					)
				)
				(pin passive line
					(at 15.24 25.4 180)
					(length 5.08) hide
					(name "VBUS"
						(effects
							(font
								(size 1.27 1.27)
							)
						)
					)
					(number "B4"
						(effects
							(font
								(size 1.27 1.27)
							)
						)
					)
				)
				(pin bidirectional line
					(at 15.24 17.78 180)
					(length 5.08)
					(name "CC2"
						(effects
							(font
								(size 1.27 1.27)
							)
						)
					)
					(number "B5"
						(effects
							(font
								(size 1.27 1.27)
							)
						)
					)
				)
				(pin bidirectional line
					(at 15.24 5.08 180)
					(length 5.08)
					(name "D+"
						(effects
							(font
								(size 1.27 1.27)
							)
						)
					)
					(number "B6"
						(effects
							(font
								(size 1.27 1.27)
							)
						)
					)
				)
				(pin bidirectional line
					(at 15.24 10.16 180)
					(length 5.08)
					(name "D-"
						(effects
							(font
								(size 1.27 1.27)
							)
						)
					)
					(number "B7"
						(effects
							(font
								(size 1.27 1.27)
							)
						)
					)
				)
				(pin bidirectional line
					(at 15.24 -33.02 180)
					(length 5.08)
					(name "SBU2"
						(effects
							(font
								(size 1.27 1.27)
							)
						)
					)
					(number "B8"
						(effects
							(font
								(size 1.27 1.27)
							)
						)
					)
				)
				(pin passive line
					(at 15.24 25.4 180)
					(length 5.08) hide
					(name "VBUS"
						(effects
							(font
								(size 1.27 1.27)
							)
						)
					)
					(number "B9"
						(effects
							(font
								(size 1.27 1.27)
							)
						)
					)
				)
				(pin passive line
					(at -7.62 -40.64 90)
					(length 5.08)
					(name "SHIELD"
						(effects
							(font
								(size 1.27 1.27)
							)
						)
					)
					(number "S1"
						(effects
							(font
								(size 1.27 1.27)
							)
						)
					)
				)
			)
		)
		(symbol "power:GND"
			(power)
			(pin_numbers hide)
			(pin_names
				(offset 0) hide)
			(exclude_from_sim no)
			(in_bom yes)
			(on_board yes)
			(property "Reference" "#PWR"
				(at 0 -6.35 0)
				(effects
					(font
						(size 1.27 1.27)
					)
					(hide yes)
				)
			)
			(property "Value" "GND"
				(at 0 -3.81 0)
				(effects
					(font
						(size 1.27 1.27)
					)
				)
			)
			(property "Footprint" ""
				(at 0 0 0)
				(effects
					(font
						(size 1.27 1.27)
					)
					(hide yes)
				)
			)
			(property "Datasheet" ""
				(at 0 0 0)
				(effects
					(font
						(size 1.27 1.27)
					)
					(hide yes)
				)
			)
			(property "Description" "Power symbol creates a global label with name \"GND\" , ground"
				(at 0 0 0)
				(effects
					(font
						(size 1.27 1.27)
					)
					(hide yes)
				)
			)
			(property "ki_keywords" "global power"
				(at 0 0 0)
				(effects
					(font
						(size 1.27 1.27)
					)
					(hide yes)
				)
			)
			(symbol "GND_0_1"
				(polyline
					(pts
						(xy 0 0) (xy 0 -1.27) (xy 1.27 -1.27) (xy 0 -2.54) (xy -1.27 -1.27) (xy 0 -1.27)
					)
					(stroke
						(width 0)
						(type default)
					)
					(fill
						(type none)
					)
				)
			)
			(symbol "GND_1_1"
				(pin power_in line
					(at 0 0 270)
					(length 0)
					(name "~"
						(effects
							(font
								(size 1.27 1.27)
							)
						)
					)
					(number "1"
						(effects
							(font
								(size 1.27 1.27)
							)
						)
					)
				)
			)
		)
	)
	(junction
		(at 82.55 124.46)
		(diameter 0)
		(color 0 0 0 0)
		(uuid "028d6e6c-5d2d-485b-a00a-3862da6bba37")
	)
	(junction
		(at 55.88 76.2)
		(diameter 0)
		(color 0 0 0 0)
		(uuid "084bc1fc-bc02-4e36-a512-647489935391")
	)
	(junction
		(at 91.44 71.12)
		(diameter 0)
		(color 0 0 0 0)
		(uuid "1891a0fb-bb4a-4b61-9e11-706eb27fc58b")
	)
	(junction
		(at 73.66 124.46)
		(diameter 0)
		(color 0 0 0 0)
		(uuid "3b25764f-37fe-4dfa-9aca-d2ffa4cd40e6")
	)
	(junction
		(at 64.77 124.46)
		(diameter 0)
		(color 0 0 0 0)
		(uuid "3dfa31da-04d6-43e0-a40a-6d25059d2975")
	)
	(junction
		(at 55.88 71.12)
		(diameter 0)
		(color 0 0 0 0)
		(uuid "7f9bda4b-596d-4d6d-a7ee-cdba8faff6f2")
	)
	(junction
		(at 91.44 76.2)
		(diameter 0)
		(color 0 0 0 0)
		(uuid "a2502b6d-9fde-4c64-b57c-2d4f49175730")
	)
	(wire
		(pts
			(xy 55.88 106.68) (xy 91.44 106.68)
		)
		(stroke
			(width 0)
			(type default)
		)
		(uuid "00a8fd17-d1f9-4d34-90da-d54c7662a7ef")
	)
	(wire
		(pts
			(xy 55.88 116.84) (xy 64.77 116.84)
		)
		(stroke
			(width 0)
			(type default)
		)
		(uuid "08af1879-becc-4120-bf3a-a2b70f6d3ebc")
	)
	(wire
		(pts
			(xy 55.88 91.44) (xy 91.44 91.44)
		)
		(stroke
			(width 0)
			(type default)
		)
		(uuid "18599c2b-608f-40a0-a241-9768c64396f5")
	)
	(wire
		(pts
			(xy 114.3 128.27) (xy 114.3 124.46)
		)
		(stroke
			(width 0)
			(type default)
		)
		(uuid "19b39a8d-f364-49f5-92b5-74a6227e83e7")
	)
	(wire
		(pts
			(xy 64.77 124.46) (xy 73.66 124.46)
		)
		(stroke
			(width 0)
			(type default)
		)
		(uuid "1bc5ee10-0901-4719-8c19-79a956d0ee48")
	)
	(wire
		(pts
			(xy 55.88 76.2) (xy 91.44 76.2)
		)
		(stroke
			(width 0)
			(type default)
		)
		(uuid "3b113844-141e-4a60-8799-92b3ddeb8783")
	)
	(wire
		(pts
			(xy 82.55 116.84) (xy 91.44 116.84)
		)
		(stroke
			(width 0)
			(type default)
		)
		(uuid "3df7eaf7-1063-4f70-869d-e9d86c77c9e2")
	)
	(wire
		(pts
			(xy 91.44 71.12) (xy 91.44 73.66)
		)
		(stroke
			(width 0)
			(type default)
		)
		(uuid "42ed41da-4d7f-4d08-af6b-225a7c6a1233")
	)
	(wire
		(pts
			(xy 91.44 76.2) (xy 91.44 78.74)
		)
		(stroke
			(width 0)
			(type default)
		)
		(uuid "46006193-8cdb-4842-b4c6-0f0d1b53046f")
	)
	(wire
		(pts
			(xy 55.88 101.6) (xy 91.44 101.6)
		)
		(stroke
			(width 0)
			(type default)
		)
		(uuid "4d848542-1ae4-4b3c-a642-75767be1ab28")
	)
	(wire
		(pts
			(xy 55.88 86.36) (xy 91.44 86.36)
		)
		(stroke
			(width 0)
			(type default)
		)
		(uuid "50e015e7-0612-4e1d-8634-2ffb844ec8b9")
	)
	(wire
		(pts
			(xy 33.02 128.27) (xy 114.3 128.27)
		)
		(stroke
			(width 0)
			(type default)
		)
		(uuid "5160c8dc-3da6-497e-b1ac-af7c80b69190")
	)
	(wire
		(pts
			(xy 55.88 71.12) (xy 91.44 71.12)
		)
		(stroke
			(width 0)
			(type default)
		)
		(uuid "516931d5-cf45-4b19-b1bb-96a5414c7169")
	)
	(wire
		(pts
			(xy 73.66 124.46) (xy 82.55 124.46)
		)
		(stroke
			(width 0)
			(type default)
		)
		(uuid "576607cd-151d-4813-b977-d275de4c9ddb")
	)
	(wire
		(pts
			(xy 55.88 58.42) (xy 91.44 58.42)
		)
		(stroke
			(width 0)
			(type default)
		)
		(uuid "5d869e75-fcfb-441e-a6df-bae8fc99e907")
	)
	(wire
		(pts
			(xy 55.88 83.82) (xy 91.44 83.82)
		)
		(stroke
			(width 0)
			(type default)
		)
		(uuid "65ec4f80-79b7-42ca-9e7c-6b7b0cb6f447")
	)
	(wire
		(pts
			(xy 55.88 76.2) (xy 55.88 78.74)
		)
		(stroke
			(width 0)
			(type default)
		)
		(uuid "6f7fa74e-c350-4403-b9a5-7ba6d2529c17")
	)
	(wire
		(pts
			(xy 40.64 124.46) (xy 64.77 124.46)
		)
		(stroke
			(width 0)
			(type default)
		)
		(uuid "72d93a3c-afa1-4183-b50b-526a176b12a1")
	)
	(wire
		(pts
			(xy 82.55 124.46) (xy 106.68 124.46)
		)
		(stroke
			(width 0)
			(type default)
		)
		(uuid "80823dcf-a3f8-4792-8863-c5021b161979")
	)
	(wire
		(pts
			(xy 55.88 99.06) (xy 91.44 99.06)
		)
		(stroke
			(width 0)
			(type default)
		)
		(uuid "8bec8af0-1bd2-45a4-91c8-45d1a61e497d")
	)
	(wire
		(pts
			(xy 55.88 71.12) (xy 55.88 73.66)
		)
		(stroke
			(width 0)
			(type default)
		)
		(uuid "96e725aa-9ee6-4530-b62b-9b0aabe4516e")
	)
	(wire
		(pts
			(xy 55.88 114.3) (xy 64.77 114.3)
		)
		(stroke
			(width 0)
			(type default)
		)
		(uuid "9c1644d4-4f72-4ea3-ac93-c3bcafc2d643")
	)
	(wire
		(pts
			(xy 64.77 119.38) (xy 64.77 124.46)
		)
		(stroke
			(width 0)
			(type default)
		)
		(uuid "cc418437-3b1a-4833-8fad-e27283f6f044")
	)
	(wire
		(pts
			(xy 55.88 66.04) (xy 91.44 66.04)
		)
		(stroke
			(width 0)
			(type default)
		)
		(uuid "dee03dbd-ccec-46c2-86ef-5a466488fd9a")
	)
	(wire
		(pts
			(xy 82.55 119.38) (xy 82.55 124.46)
		)
		(stroke
			(width 0)
			(type default)
		)
		(uuid "ea321cf4-815a-424d-a383-fd2cde8a07ac")
	)
	(wire
		(pts
			(xy 55.88 109.22) (xy 91.44 109.22)
		)
		(stroke
			(width 0)
			(type default)
		)
		(uuid "ed54a709-9c62-4a47-9986-f894b328a858")
	)
	(wire
		(pts
			(xy 55.88 63.5) (xy 91.44 63.5)
		)
		(stroke
			(width 0)
			(type default)
		)
		(uuid "f2b2fc2e-9935-45e4-830d-64fc926e36ee")
	)
	(wire
		(pts
			(xy 82.55 114.3) (xy 91.44 114.3)
		)
		(stroke
			(width 0)
			(type default)
		)
		(uuid "f81173fc-9313-4aba-aabb-42a43d64a03c")
	)
	(wire
		(pts
			(xy 33.02 124.46) (xy 33.02 128.27)
		)
		(stroke
			(width 0)
			(type default)
		)
		(uuid "fed26c1c-708d-4326-ae7c-26b1872ffcb1")
	)
	(wire
		(pts
			(xy 55.88 93.98) (xy 91.44 93.98)
		)
		(stroke
			(width 0)
			(type default)
		)
		(uuid "fef838c8-ad03-47ae-a28c-4eba21f0d4ec")
	)
	(label "RX2-"
		(at 71.12 99.06 0)
		(fields_autoplaced yes)
		(effects
			(font
				(size 1.27 1.27)
			)
			(justify left bottom)
		)
		(uuid "04d3ad90-3752-469c-b06d-419b8939a563")
	)
	(label "TX1-"
		(at 71.12 91.44 0)
		(fields_autoplaced yes)
		(effects
			(font
				(size 1.27 1.27)
			)
			(justify left bottom)
		)
		(uuid "0fcb9937-3881-4b09-ac11-13335454c888")
	)
	(label "VBUS"
		(at 71.12 58.42 0)
		(fields_autoplaced yes)
		(effects
			(font
				(size 1.27 1.27)
			)
			(justify left bottom)
		)
		(uuid "2303f18f-f241-4d06-81da-adb8e321340f")
	)
	(label "D+"
		(at 71.12 76.2 0)
		(fields_autoplaced yes)
		(effects
			(font
				(size 1.27 1.27)
			)
			(justify left bottom)
		)
		(uuid "54c7ce1a-9879-4d5a-8e26-774312bdeff9")
	)
	(label "SBU2_F"
		(at 91.44 116.84 180)
		(fields_autoplaced yes)
		(effects
			(font
				(size 1.27 1.27)
			)
			(justify right bottom)
		)
		(uuid "5cb14af1-2e6b-40dc-8ad7-645afcee0316")
	)
	(label "RX1+"
		(at 71.12 86.36 0)
		(fields_autoplaced yes)
		(effects
			(font
				(size 1.27 1.27)
			)
			(justify left bottom)
		)
		(uuid "829e0b65-f597-4f4d-9bda-a999d004fe1a")
	)
	(label "CC1"
		(at 71.12 63.5 0)
		(fields_autoplaced yes)
		(effects
			(font
				(size 1.27 1.27)
			)
			(justify left bottom)
		)
		(uuid "8ae40f3b-e4f5-400e-b186-5e3e7e74cfe9")
	)
	(label "TX2-"
		(at 71.12 106.68 0)
		(fields_autoplaced yes)
		(effects
			(font
				(size 1.27 1.27)
			)
			(justify left bottom)
		)
		(uuid "8efeee76-7b56-4d2c-9f00-d5a73edf6aef")
	)
	(label "TX1+"
		(at 71.12 93.98 0)
		(fields_autoplaced yes)
		(effects
			(font
				(size 1.27 1.27)
			)
			(justify left bottom)
		)
		(uuid "90fa7b87-7f9a-485d-a78c-272274071961")
	)
	(label "CC2"
		(at 71.12 66.04 0)
		(fields_autoplaced yes)
		(effects
			(font
				(size 1.27 1.27)
			)
			(justify left bottom)
		)
		(uuid "9d200a41-263c-461d-b65a-a1f94310914a")
	)
	(label "TX2+"
		(at 71.12 109.22 0)
		(fields_autoplaced yes)
		(effects
			(font
				(size 1.27 1.27)
			)
			(justify left bottom)
		)
		(uuid "9da89c72-2d07-4155-ba71-23098305c4fa")
	)
	(label "RX2+"
		(at 71.12 101.6 0)
		(fields_autoplaced yes)
		(effects
			(font
				(size 1.27 1.27)
			)
			(justify left bottom)
		)
		(uuid "ae31f97a-09a9-4fe2-8263-ac1f294f9d06")
	)
	(label "SBU1_F"
		(at 91.44 114.3 180)
		(fields_autoplaced yes)
		(effects
			(font
				(size 1.27 1.27)
			)
			(justify right bottom)
		)
		(uuid "afe96b5d-efd8-4ea1-956d-fdce5d33e58d")
	)
	(label "SBU2_M"
		(at 55.88 116.84 0)
		(fields_autoplaced yes)
		(effects
			(font
				(size 1.27 1.27)
			)
			(justify left bottom)
		)
		(uuid "b68f1849-7dda-4599-ad5f-c5940944830a")
	)
	(label "RX1-"
		(at 71.12 83.82 0)
		(fields_autoplaced yes)
		(effects
			(font
				(size 1.27 1.27)
			)
			(justify left bottom)
		)
		(uuid "c7b75eb0-dbd8-4e46-b95a-c041a474c8d9")
	)
	(label "SBU1_M"
		(at 55.88 114.3 0)
		(fields_autoplaced yes)
		(effects
			(font
				(size 1.27 1.27)
			)
			(justify left bottom)
		)
		(uuid "cc0844fe-866e-4524-be5b-76c3c2d971a5")
	)
	(label "SHIELD"
		(at 71.12 128.27 0)
		(fields_autoplaced yes)
		(effects
			(font
				(size 1.27 1.27)
			)
			(justify left bottom)
		)
		(uuid "de2f04e2-117a-48e7-8d82-a0bd18d36e4c")
	)
	(label "D-"
		(at 71.12 71.12 0)
		(fields_autoplaced yes)
		(effects
			(font
				(size 1.27 1.27)
			)
			(justify left bottom)
		)
		(uuid "e678fb9e-9c69-48e3-8382-0a7996d14c46")
	)
	(symbol
		(lib_id "Connector:Conn_01x03_Pin")
		(at 77.47 116.84 0)
		(unit 1)
		(exclude_from_sim no)
		(in_bom yes)
		(on_board yes)
		(dnp yes)
		(uuid "2b538a06-cd26-4a49-9d3f-e0689d145a25")
		(property "Reference" "J3"
			(at 76.708 116.84 0)
			(effects
				(font
					(size 1.27 1.27)
				)
				(justify right)
			)
		)
		(property "Value" "Conn_01x03_Pin"
			(at 76.2 115.5701 0)
			(effects
				(font
					(size 1.27 1.27)
				)
				(justify right)
				(hide yes)
			)
		)
		(property "Footprint" "Connector_PinHeader_2.54mm:PinHeader_1x03_P2.54mm_Horizontal"
			(at 77.47 116.84 0)
			(effects
				(font
					(size 1.27 1.27)
				)
				(hide yes)
			)
		)
		(property "Datasheet" "~"
			(at 77.47 116.84 0)
			(effects
				(font
					(size 1.27 1.27)
				)
				(hide yes)
			)
		)
		(property "Description" "Generic connector, single row, 01x03, script generated"
			(at 77.47 116.84 0)
			(effects
				(font
					(size 1.27 1.27)
				)
				(hide yes)
			)
		)
		(property "LCSC" "C7501291"
			(at 77.47 116.84 0)
			(effects
				(font
					(size 1.27 1.27)
				)
				(hide yes)
			)
		)
		(pin "3"
			(uuid "2b0b2749-2644-4e34-a5fa-5ee3ac50c3cb")
		)
		(pin "2"
			(uuid "ed43880b-e745-41cb-a200-0b37ffb1f191")
		)
		(pin "1"
			(uuid "73c5e376-6cdd-4419-ac95-923974f43ef1")
		)
		(instances
			(project "sbu-cork"
				(path "/13e928f0-7c61-4551-94a0-7a09e2cb59a0"
					(reference "J3")
					(unit 1)
				)
			)
		)
	)
	(symbol
		(lib_id "power:GND")
		(at 73.66 124.46 180)
		(unit 1)
		(exclude_from_sim no)
		(in_bom yes)
		(on_board yes)
		(dnp no)
		(fields_autoplaced yes)
		(uuid "58a3bb3b-9953-49d2-ab68-29a717e0e099")
		(property "Reference" "#PWR01"
			(at 73.66 118.11 0)
			(effects
				(font
					(size 1.27 1.27)
				)
				(hide yes)
			)
		)
		(property "Value" "GND"
			(at 73.66 119.38 0)
			(effects
				(font
					(size 1.27 1.27)
				)
				(hide yes)
			)
		)
		(property "Footprint" ""
			(at 73.66 124.46 0)
			(effects
				(font
					(size 1.27 1.27)
				)
				(hide yes)
			)
		)
		(property "Datasheet" ""
			(at 73.66 124.46 0)
			(effects
				(font
					(size 1.27 1.27)
				)
				(hide yes)
			)
		)
		(property "Description" "Power symbol creates a global label with name \"GND\" , ground"
			(at 73.66 124.46 0)
			(effects
				(font
					(size 1.27 1.27)
				)
				(hide yes)
			)
		)
		(pin "1"
			(uuid "14d0d535-1cb3-4c1f-b726-ac75a555d098")
		)
		(instances
			(project "sbu-cork"
				(path "/13e928f0-7c61-4551-94a0-7a09e2cb59a0"
					(reference "#PWR01")
					(unit 1)
				)
			)
		)
	)
	(symbol
		(lib_id "Connector:USB_C_Plug")
		(at 40.64 83.82 0)
		(unit 1)
		(exclude_from_sim no)
		(in_bom yes)
		(on_board yes)
		(dnp no)
		(fields_autoplaced yes)
		(uuid "8afbc0d1-8aeb-449c-ad7e-449f8621c8a6")
		(property "Reference" "P1"
			(at 40.64 50.8 0)
			(effects
				(font
					(size 1.27 1.27)
				)
			)
		)
		(property "Value" "USB_C_Plug"
			(at 40.64 53.34 0)
			(effects
				(font
					(size 1.27 1.27)
				)
			)
		)
		(property "Footprint" "C2938596:USB-C-SMD_U261-241N-4BS2SS"
			(at 44.45 83.82 0)
			(effects
				(font
					(size 1.27 1.27)
				)
				(hide yes)
			)
		)
		(property "Datasheet" "https://www.usb.org/sites/default/files/documents/usb_type-c.zip"
			(at 44.45 83.82 0)
			(effects
				(font
					(size 1.27 1.27)
				)
				(hide yes)
			)
		)
		(property "Description" "USB Type-C Plug connector"
			(at 40.64 83.82 0)
			(effects
				(font
					(size 1.27 1.27)
				)
				(hide yes)
			)
		)
		(property "LCSC" "C2938596"
			(at 40.64 83.82 0)
			(effects
				(font
					(size 1.27 1.27)
				)
				(hide yes)
			)
		)
		(pin "B1"
			(uuid "929b2fb7-3ceb-4a36-8253-210112617675")
		)
		(pin "A8"
			(uuid "04ca916c-47f1-4a4f-82f2-f7314c50c7c9")
		)
		(pin "A9"
			(uuid "ba942707-60cf-4196-b0b4-e852c2cfc524")
		)
		(pin "B5"
			(uuid "c351fc0c-02a9-49b4-adde-18c3dc5a9070")
		)
		(pin "B10"
			(uuid "07f39b76-d680-419d-93c5-a83fe10185d8")
		)
		(pin "A5"
			(uuid "07cfb753-b270-483f-ab6a-f0fc8a34ac32")
		)
		(pin "B4"
			(uuid "27a12c79-de2f-42dc-9c55-dcabbfc94cdd")
		)
		(pin "A4"
			(uuid "a70a9f30-432c-4534-95ae-6fadd5348336")
		)
		(pin "B11"
			(uuid "1edfa0b5-ac32-4a23-bf12-1c7c4296e283")
		)
		(pin "A2"
			(uuid "d3cee831-7981-43d4-b6eb-0595268de5d4")
		)
		(pin "A12"
			(uuid "366738da-8946-49e8-b149-2fa2ea0f1160")
		)
		(pin "B12"
			(uuid "c648fb35-a4f8-469f-a5e3-be3b0db397c2")
		)
		(pin "A11"
			(uuid "a17a765d-ad3b-4a69-ad14-49058b6eb63b")
		)
		(pin "A10"
			(uuid "0c34a20a-5c17-4f7b-922a-9317ebd7c084")
		)
		(pin "B8"
			(uuid "0fa67a60-49e1-42fd-ac22-b7dc78ce4d1e")
		)
		(pin "A1"
			(uuid "8da56369-7d2c-4324-99ca-43d362d1cc45")
		)
		(pin "A7"
			(uuid "309b3bd8-58b7-4248-836b-02dbb760d1f2")
		)
		(pin "S1"
			(uuid "2342d8a7-f935-41ea-a15e-dd77f82a27d0")
		)
		(pin "B2"
			(uuid "11180e9d-e411-4f8f-b647-e29069899945")
		)
		(pin "A6"
			(uuid "03ba473d-8f8f-44eb-a7e4-b67f59fff94c")
		)
		(pin "B3"
			(uuid "69102787-e862-4262-bfbe-31167505c76b")
		)
		(pin "A3"
			(uuid "9bdb346e-1bff-482a-8e1d-d4f5ed48c7bd")
		)
		(pin "B9"
			(uuid "751c0daa-424d-47d5-a928-21cae6819c81")
		)
		(pin "B6"
			(uuid "e187c78b-064e-46a6-9f11-2b1dd2b8c6af")
		)
		(pin "B7"
			(uuid "9119888f-fd8c-4a1a-9719-17ae41c10469")
		)
		(instances
			(project "sbu-cork"
				(path "/13e928f0-7c61-4551-94a0-7a09e2cb59a0"
					(reference "P1")
					(unit 1)
				)
			)
		)
	)
	(symbol
		(lib_id "Connector:Conn_01x03_Pin")
		(at 69.85 116.84 0)
		(mirror y)
		(unit 1)
		(exclude_from_sim no)
		(in_bom yes)
		(on_board yes)
		(dnp yes)
		(uuid "993143e1-eab5-4283-8049-adbe92ffae7d")
		(property "Reference" "J2"
			(at 70.612 116.84 0)
			(effects
				(font
					(size 1.27 1.27)
				)
				(justify right)
			)
		)
		(property "Value" "Conn_01x03_Pin"
			(at 71.12 115.5701 0)
			(effects
				(font
					(size 1.27 1.27)
				)
				(justify right)
				(hide yes)
			)
		)
		(property "Footprint" "Connector_PinHeader_2.54mm:PinHeader_1x03_P2.54mm_Horizontal"
			(at 69.85 116.84 0)
			(effects
				(font
					(size 1.27 1.27)
				)
				(hide yes)
			)
		)
		(property "Datasheet" "~"
			(at 69.85 116.84 0)
			(effects
				(font
					(size 1.27 1.27)
				)
				(hide yes)
			)
		)
		(property "Description" "Generic connector, single row, 01x03, script generated"
			(at 69.85 116.84 0)
			(effects
				(font
					(size 1.27 1.27)
				)
				(hide yes)
			)
		)
		(property "LCSC" "C7501291"
			(at 69.85 116.84 0)
			(effects
				(font
					(size 1.27 1.27)
				)
				(hide yes)
			)
		)
		(pin "3"
			(uuid "10135843-3e48-4bfc-bcc5-cba0b481893e")
		)
		(pin "2"
			(uuid "0dfb18ff-4bee-4fc1-a729-5735be6d6f06")
		)
		(pin "1"
			(uuid "f0763e04-14fa-45b4-9d97-2583eae42553")
		)
		(instances
			(project "sbu-cork"
				(path "/13e928f0-7c61-4551-94a0-7a09e2cb59a0"
					(reference "J2")
					(unit 1)
				)
			)
		)
	)
	(symbol
		(lib_id "Connector:USB_C_Receptacle")
		(at 106.68 83.82 0)
		(mirror y)
		(unit 1)
		(exclude_from_sim no)
		(in_bom yes)
		(on_board yes)
		(dnp no)
		(uuid "d8103a3d-7f1b-41c0-bf7d-4707bfd21495")
		(property "Reference" "J1"
			(at 106.68 50.8 0)
			(effects
				(font
					(size 1.27 1.27)
				)
			)
		)
		(property "Value" "USB_C_Receptacle"
			(at 106.68 53.34 0)
			(effects
				(font
					(size 1.27 1.27)
				)
			)
		)
		(property "Footprint" "Connector_USB:USB_C_Receptacle_Molex_105450-0101"
			(at 102.87 83.82 0)
			(effects
				(font
					(size 1.27 1.27)
				)
				(hide yes)
			)
		)
		(property "Datasheet" "https://www.usb.org/sites/default/files/documents/usb_type-c.zip"
			(at 102.87 83.82 0)
			(effects
				(font
					(size 1.27 1.27)
				)
				(hide yes)
			)
		)
		(property "Description" "USB Full-Featured Type-C Receptacle connector"
			(at 106.68 83.82 0)
			(effects
				(font
					(size 1.27 1.27)
				)
				(hide yes)
			)
		)
		(property "LCSC" "C134092"
			(at 106.68 83.82 0)
			(effects
				(font
					(size 1.27 1.27)
				)
				(hide yes)
			)
		)
		(pin "B2"
			(uuid "a09ec5aa-8e43-4ef2-82ea-983eb0666b25")
		)
		(pin "B7"
			(uuid "72561992-8000-4b36-a39d-4f4c9fd49582")
		)
		(pin "B10"
			(uuid "4c1b7631-6f85-4f49-ac34-0add8358afb1")
		)
		(pin "B9"
			(uuid "cdf315a3-c6b9-449e-883b-582f9b41aa18")
		)
		(pin "B11"
			(uuid "6e74b824-3d94-4188-822e-ddf2e76b992a")
		)
		(pin "A7"
			(uuid "4b2458ca-31bd-4c03-98f3-454822b7edaa")
		)
		(pin "A8"
			(uuid "6efdeca9-e603-416b-946d-0bf437ede94e")
		)
		(pin "S1"
			(uuid "7f8256e0-d967-4094-a354-453c8be5f169")
		)
		(pin "A9"
			(uuid "f2f6f57b-af43-45fe-bbb8-c0ffa5174d29")
		)
		(pin "A4"
			(uuid "8f002969-18d9-4fd6-a622-bd89a855e24a")
		)
		(pin "B4"
			(uuid "7099f9dd-493f-4d83-931b-00534646df7c")
		)
		(pin "B6"
			(uuid "c417c92d-cfdd-4e85-927e-9ca4027502e5")
		)
		(pin "B1"
			(uuid "268c8030-c6c7-498a-9568-f3450d86e4d5")
		)
		(pin "B3"
			(uuid "95d10a84-8248-416b-9189-001c499e9acc")
		)
		(pin "B8"
			(uuid "70fd8323-f418-45ba-a7a4-ca8825ccaffe")
		)
		(pin "A3"
			(uuid "a0ad132f-0cd1-408c-9119-ace738f5a305")
		)
		(pin "A2"
			(uuid "50524514-fe35-4d42-9265-fc2d89482110")
		)
		(pin "A12"
			(uuid "d977e3b7-ed28-4633-937d-ad02966a1dc2")
		)
		(pin "A11"
			(uuid "de03bc87-43fe-4e3a-969f-f641e7563bfa")
		)
		(pin "A10"
			(uuid "02d6e744-2baf-4ac8-86db-17b489aa4ea2")
		)
		(pin "A1"
			(uuid "ce7d9802-143b-4e60-bf90-ed89822ca73d")
		)
		(pin "B5"
			(uuid "19be4676-133b-41eb-a869-16276e32fc34")
		)
		(pin "A6"
			(uuid "f7faa741-dd5e-42e0-bb17-da73269123b3")
		)
		(pin "B12"
			(uuid "f3d0fa6b-a328-4a80-95b4-acb6a436cdd1")
		)
		(pin "A5"
			(uuid "0af1ad73-b887-40dc-b793-2e0e53404fba")
		)
		(instances
			(project "sbu-cork"
				(path "/13e928f0-7c61-4551-94a0-7a09e2cb59a0"
					(reference "J1")
					(unit 1)
				)
			)
		)
	)
	(sheet_instances
		(path "/"
			(page "1")
		)
	)
)
