G04 #@! TF.GenerationSoftware,KiCad,Pcbnew,8.0.2*
G04 #@! TF.CreationDate,2024-06-11T04:04:50+02:00*
G04 #@! TF.ProjectId,sbu-cork,7362752d-636f-4726-9b2e-6b696361645f,rev?*
G04 #@! TF.SameCoordinates,Original*
G04 #@! TF.FileFunction,Copper,L1,Top*
G04 #@! TF.FilePolarity,Positive*
%FSLAX46Y46*%
G04 Gerber Fmt 4.6, Leading zero omitted, Abs format (unit mm)*
G04 Created by KiCad (PCBNEW 8.0.2) date 2024-06-11 04:04:50*
%MOMM*%
%LPD*%
G01*
G04 APERTURE LIST*
G04 #@! TA.AperFunction,ComponentPad*
%ADD10R,1.700000X1.700000*%
G04 #@! TD*
G04 #@! TA.AperFunction,ComponentPad*
%ADD11O,1.700000X1.700000*%
G04 #@! TD*
G04 #@! TA.AperFunction,SMDPad,CuDef*
%ADD12R,0.500000X1.800000*%
G04 #@! TD*
G04 #@! TA.AperFunction,SMDPad,CuDef*
%ADD13R,1.000000X2.800000*%
G04 #@! TD*
G04 #@! TA.AperFunction,SMDPad,CuDef*
%ADD14R,0.300000X0.850000*%
G04 #@! TD*
G04 #@! TA.AperFunction,SMDPad,CuDef*
%ADD15R,0.300000X1.250000*%
G04 #@! TD*
G04 #@! TA.AperFunction,SMDPad,CuDef*
%ADD16R,0.300000X0.700000*%
G04 #@! TD*
G04 #@! TA.AperFunction,SMDPad,CuDef*
%ADD17R,1.000000X0.700000*%
G04 #@! TD*
G04 #@! TA.AperFunction,ComponentPad*
%ADD18O,1.100000X2.100000*%
G04 #@! TD*
G04 #@! TA.AperFunction,ComponentPad*
%ADD19O,1.100000X2.600000*%
G04 #@! TD*
G04 #@! TA.AperFunction,ViaPad*
%ADD20C,0.450000*%
G04 #@! TD*
G04 #@! TA.AperFunction,Conductor*
%ADD21C,0.200000*%
G04 #@! TD*
G04 #@! TA.AperFunction,Conductor*
%ADD22C,0.170000*%
G04 #@! TD*
G04 APERTURE END LIST*
D10*
X159000000Y-100460000D03*
D11*
X159000000Y-103000000D03*
X159000000Y-105540000D03*
D10*
X151000000Y-105540000D03*
D11*
X151000000Y-103000000D03*
X151000000Y-100460000D03*
D12*
X151415000Y-96025000D03*
D13*
X150400000Y-96525000D03*
X159580000Y-96525000D03*
D12*
X158565000Y-96025000D03*
D14*
X152240000Y-97660000D03*
X152740000Y-97660000D03*
X153240000Y-97660000D03*
X153740000Y-97660000D03*
X154240000Y-97660000D03*
X154740000Y-97660000D03*
X155240000Y-97660000D03*
X155740000Y-97660000D03*
X156240000Y-97660000D03*
X156740000Y-97660000D03*
X157240000Y-97660000D03*
X157740000Y-97660000D03*
D15*
X157740000Y-95750000D03*
X157240000Y-95750000D03*
X156740000Y-95750000D03*
X156240000Y-95750000D03*
X155740000Y-95750000D03*
X155240000Y-95750000D03*
X154740000Y-95750000D03*
X154240000Y-95750000D03*
X153740000Y-95750000D03*
X153240000Y-95750000D03*
X152740000Y-95750000D03*
X152240000Y-95750000D03*
D16*
X152000000Y-108785000D03*
X152500000Y-108785000D03*
X153000000Y-108785000D03*
X153500000Y-108785000D03*
X154000000Y-108785000D03*
X154500000Y-108785000D03*
X155500000Y-108785000D03*
X156000000Y-108785000D03*
X156500000Y-108785000D03*
X157000000Y-108785000D03*
X157500000Y-108785000D03*
X158000000Y-108785000D03*
D17*
X158100000Y-110085000D03*
D16*
X157250000Y-110085000D03*
X156750000Y-110085000D03*
X156250000Y-110085000D03*
X155750000Y-110085000D03*
X155250000Y-110085000D03*
X154750000Y-110085000D03*
X154250000Y-110085000D03*
X153750000Y-110085000D03*
X153250000Y-110085000D03*
X152750000Y-110085000D03*
D17*
X151900000Y-110085000D03*
D18*
X150680000Y-109195000D03*
D19*
X150680000Y-114555000D03*
D18*
X159320000Y-109195000D03*
D19*
X159320000Y-114555000D03*
D20*
X156750000Y-110300000D03*
X156875000Y-96825000D03*
X154742344Y-96229143D03*
X155243807Y-97444454D03*
X152750000Y-109900000D03*
X152250000Y-96800000D03*
X153500000Y-108775000D03*
X153725000Y-97675000D03*
X156250000Y-97675000D03*
X156500000Y-108800000D03*
X154000000Y-108050000D03*
X154250000Y-98450000D03*
X155250000Y-110100000D03*
X154500000Y-108800000D03*
X157800000Y-96800000D03*
X157250000Y-109900000D03*
X153254000Y-110200000D03*
X153050000Y-96825000D03*
X155739915Y-109553363D03*
X155775000Y-96800000D03*
X155750000Y-98450000D03*
X154175000Y-96800000D03*
X157750000Y-95775000D03*
X151411528Y-97427805D03*
X158000000Y-108800000D03*
X158100000Y-110100000D03*
X151975000Y-108800000D03*
X158568426Y-97427805D03*
X152225000Y-95750000D03*
X151900000Y-110100000D03*
X158550000Y-96500000D03*
X150375000Y-95675000D03*
X159575000Y-95550000D03*
X151425000Y-96500000D03*
X150386401Y-97427805D03*
X150375000Y-96550000D03*
X159575000Y-96525000D03*
X159574569Y-97427805D03*
X151428256Y-95653045D03*
X158544916Y-95564073D03*
X154250000Y-109550000D03*
X156000000Y-108050000D03*
D21*
X156740000Y-96690000D02*
X156740000Y-95750000D01*
X156875000Y-96825000D02*
X156740000Y-96690000D01*
D22*
X157000000Y-108259999D02*
X157025000Y-108234999D01*
X157000000Y-108785000D02*
X157000000Y-108259999D01*
X157025000Y-100468200D02*
X156775000Y-100218200D01*
X157025000Y-108234999D02*
X157025000Y-100468200D01*
D21*
X156775000Y-97695000D02*
X156740000Y-97660000D01*
D22*
X156775000Y-100218200D02*
X156775000Y-97695000D01*
X155500000Y-108985000D02*
X154746000Y-109739000D01*
X155500000Y-108785000D02*
X155500000Y-108259999D01*
D21*
X154742344Y-96187344D02*
X154740000Y-96185000D01*
X155500000Y-108785000D02*
X155500000Y-108985000D01*
D22*
X155225000Y-107984999D02*
X155225000Y-97900000D01*
X155500000Y-108259999D02*
X155225000Y-107984999D01*
X154746000Y-109739000D02*
X154746000Y-110085000D01*
D21*
X154742344Y-96229143D02*
X154742344Y-96187344D01*
X152740000Y-96310000D02*
X152740000Y-95750000D01*
X152250000Y-96800000D02*
X152740000Y-96310000D01*
X153740000Y-95750000D02*
X153740000Y-97660000D01*
X156250000Y-109535000D02*
X156500000Y-109285000D01*
X156240000Y-95750000D02*
X156240000Y-97665000D01*
X153500000Y-109285000D02*
X153500000Y-108785000D01*
X153750000Y-109535000D02*
X153500000Y-109285000D01*
X156240000Y-97665000D02*
X156250000Y-97675000D01*
X156500000Y-109285000D02*
X156500000Y-108785000D01*
X156250000Y-110085000D02*
X156250000Y-109535000D01*
X153750000Y-110085000D02*
X153750000Y-109535000D01*
X154000000Y-108562236D02*
X154004000Y-108566236D01*
X154000000Y-108050000D02*
X154000000Y-108562236D01*
X154240000Y-97660000D02*
X154240000Y-98440000D01*
X154240000Y-98440000D02*
X154250000Y-98450000D01*
X154500000Y-108785000D02*
X154500000Y-108800000D01*
D22*
X154750000Y-97250000D02*
X155250000Y-96750000D01*
X154500000Y-108800000D02*
X154500000Y-108259999D01*
X154500000Y-108259999D02*
X154775000Y-107984999D01*
X155250000Y-96750000D02*
X155250000Y-96125000D01*
X154775000Y-107984999D02*
X154775000Y-97900000D01*
X152740000Y-100060000D02*
X152740000Y-97660000D01*
X152525000Y-100275000D02*
X152740000Y-100060000D01*
X152500000Y-108259999D02*
X152525000Y-108234999D01*
X152500000Y-108785000D02*
X152500000Y-108259999D01*
X152525000Y-108234999D02*
X152525000Y-100275000D01*
X152975000Y-108234999D02*
X152975000Y-100493200D01*
X153000000Y-108785000D02*
X153000000Y-108259999D01*
X152975000Y-100493200D02*
X153175000Y-100293200D01*
X153175000Y-100293200D02*
X153175000Y-97725000D01*
D21*
X153175000Y-97725000D02*
X153240000Y-97660000D01*
D22*
X153000000Y-108259999D02*
X152975000Y-108234999D01*
D21*
X157635000Y-96800000D02*
X157240000Y-96405000D01*
X157800000Y-96800000D02*
X157635000Y-96800000D01*
X157240000Y-96405000D02*
X157240000Y-95750000D01*
X153050000Y-96825000D02*
X153240000Y-96635000D01*
X153240000Y-96635000D02*
X153240000Y-95750000D01*
X155740000Y-96765000D02*
X155775000Y-96800000D01*
X155740000Y-95750000D02*
X155740000Y-96765000D01*
D22*
X157240000Y-97660000D02*
X157240000Y-100046800D01*
X157475000Y-108234999D02*
X157500000Y-108259999D01*
X157475000Y-100281800D02*
X157475000Y-108234999D01*
X157500000Y-108259999D02*
X157500000Y-108785000D01*
X157240000Y-100046800D02*
X157475000Y-100281800D01*
D21*
X155740000Y-98440000D02*
X155750000Y-98450000D01*
X155740000Y-97660000D02*
X155740000Y-98440000D01*
X154240000Y-96735000D02*
X154175000Y-96800000D01*
X154240000Y-95750000D02*
X154240000Y-96735000D01*
X151643723Y-97660000D02*
X152240000Y-97660000D01*
X151411528Y-97427805D02*
X151643723Y-97660000D01*
X158568426Y-97427805D02*
X158336231Y-97660000D01*
X158336231Y-97660000D02*
X157740000Y-97660000D01*
X156000000Y-108050000D02*
X155996000Y-108054000D01*
X155996000Y-108054000D02*
X155996000Y-108785000D01*
M02*
